{
  "routes": [
    {
      "method": "GET",
      "path": "/products/recentCityProfileReport",
      "handler": "Product.recentCityProfileReport",
      "config": {
        "policies": ["global.isApi", "global.isAuthenticated"]
      }
    },
    {
      "method": "GET",
      "path": "/products/recentCityProfileReportSkeleton",
      "handler": "Product.recentCityProfileReportSkeleton",
      "config": {
        "policies": ["global.isApi"]
      }
    },
    {
      "method": "GET",
      "path": "/products/recentCityFactSheet",
      "handler": "Product.recentCityFactSheet",
      "config": {
        "policies": ["global.isApi"]
      }
    },
    {
      "method": "GET",
      "path": "/products/recentCityFactSheetAr",
      "handler": "Product.recentCityFactSheetAr",
      "config": {
        "policies": ["global.isApi"]
      }
    },
    {
      "method": "POST",
      "path": "/products/downloadPrivateCopiedProduct",
      "handler": "Product.downloadPrivateCopiedProduct",
      "config": {
        "policies": ["global.isApi", "global.isAuthenticated"]
      }
    },
    {
      "method": "POST",
      "path": "/products/deletePrivateCopiedProduct",
      "handler": "Product.deletePrivateCopiedProduct",
      "config": {
        "policies": ["global.isApi", "global.isAuthenticated"]
      }
    }
  ]
}
